12342 Hurley Wu laparoscopic 12000
32121 Hurley Ju tonsillectomy 12000
12345 Hurley Bob hemispherectomy 12000
12346 Hurley Wu laparoscopic 12000
12347 Hurley Ju tonsillectomy 12000
12349 Hurley Bob hemispherectomy 12000
12340 Hurley Wu laparoscopic 12000
12347 Hurley Ju tonsillectomy 12000
12345 Hurley Bob hemispherectomy 12000
12334 Hurley Wu laparoscopic 12000
32121 Hurley Ju tonsillectomy 12000
12345 Hurley Bob hemispherectomy 12000
12346 Hurley Wu laparoscopic 12000
12347 Hurley Ju tonsillectomy 12000
12349 Hurley Bob hemispherectomy 12000
12340 Hurley Wu laparoscopic 12000
